%YAML 1.1
%TAG !u! tag:unity3d.com,2011:
--- !u!1001 &4104847061975463559
PrefabInstance:
  m_ObjectHideFlags: 0
  serializedVersion: 2
  m_Modification:
    m_TransformParent: {fileID: 0}
    m_Modifications:
    - target: {fileID: 197644683604459704, guid: 9cd8a8899ff85d0449a9912adbea0725,
        type: 3}
      propertyPath: m_Name
      value: RFAIPP_Modular_Bench_Side (1)
      objectReference: {fileID: 0}
    - target: {fileID: 4213463697651771854, guid: 9cd8a8899ff85d0449a9912adbea0725,
        type: 3}
      propertyPath: m_LocalPosition.x
      value: -337.456
      objectReference: {fileID: 0}
    - target: {fileID: 4213463697651771854, guid: 9cd8a8899ff85d0449a9912adbea0725,
        type: 3}
      propertyPath: m_LocalPosition.y
      value: 76.46631
      objectReference: {fileID: 0}
    - target: {fileID: 4213463697651771854, guid: 9cd8a8899ff85d0449a9912adbea0725,
        type: 3}
      propertyPath: m_LocalPosition.z
      value: -41.374
      objectReference: {fileID: 0}
    - target: {fileID: 4213463697651771854, guid: 9cd8a8899ff85d0449a9912adbea0725,
        type: 3}
      propertyPath: m_LocalRotation.x
      value: 0
      objectReference: {fileID: 0}
    - target: {fileID: 4213463697651771854, guid: 9cd8a8899ff85d0449a9912adbea0725,
        type: 3}
      propertyPath: m_LocalRotation.y
      value: -1
      objectReference: {fileID: 0}
    - target: {fileID: 4213463697651771854, guid: 9cd8a8899ff85d0449a9912adbea0725,
        type: 3}
      propertyPath: m_LocalRotation.z
      value: 0
      objectReference: {fileID: 0}
    - target: {fileID: 4213463697651771854, guid: 9cd8a8899ff85d0449a9912adbea0725,
        type: 3}
      propertyPath: m_LocalRotation.w
      value: 0
      objectReference: {fileID: 0}
    - target: {fileID: 4213463697651771854, guid: 9cd8a8899ff85d0449a9912adbea0725,
        type: 3}
      propertyPath: m_RootOrder
      value: 0
      objectReference: {fileID: 0}
    - target: {fileID: 4213463697651771854, guid: 9cd8a8899ff85d0449a9912adbea0725,
        type: 3}
      propertyPath: m_LocalEulerAnglesHint.x
      value: 0
      objectReference: {fileID: 0}
    - target: {fileID: 4213463697651771854, guid: 9cd8a8899ff85d0449a9912adbea0725,
        type: 3}
      propertyPath: m_LocalEulerAnglesHint.y
      value: -180
      objectReference: {fileID: 0}
    - target: {fileID: 4213463697651771854, guid: 9cd8a8899ff85d0449a9912adbea0725,
        type: 3}
      propertyPath: m_LocalEulerAnglesHint.z
      value: 0
      objectReference: {fileID: 0}
    m_RemovedComponents: []
  m_SourcePrefab: {fileID: 100100000, guid: 9cd8a8899ff85d0449a9912adbea0725, type: 3}
