%YAML 1.1
%TAG !u! tag:unity3d.com,2011:
--- !u!54 &1987141082
Rigidbody:
  m_ObjectHideFlags: 0
  m_CorrespondingSourceObject: {fileID: 0}
  m_PrefabInstance: {fileID: 0}
  m_PrefabAsset: {fileID: 0}
  m_GameObject: {fileID: 676934703973662328}
  serializedVersion: 2
  m_Mass: 1
  m_Drag: 0
  m_AngularDrag: 0.05
  m_UseGravity: 1
  m_IsKinematic: 0
  m_Interpolate: 0
  m_Constraints: 0
  m_CollisionDetection: 0
--- !u!64 &1987141085
MeshCollider:
  m_ObjectHideFlags: 0
  m_CorrespondingSourceObject: {fileID: 0}
  m_PrefabInstance: {fileID: 0}
  m_PrefabAsset: {fileID: 0}
  m_GameObject: {fileID: 676934703973662328}
  m_Material: {fileID: 0}
  m_IsTrigger: 0
  m_Enabled: 1
  serializedVersion: 3
  m_Convex: 1
  m_CookingOptions: 14
  m_Mesh: {fileID: 4300000, guid: 21e9b3af7fb0bb9478bdd9363a6ff5c1, type: 3}
--- !u!114 &-7974407666593140933
MonoBehaviour:
  m_ObjectHideFlags: 0
  m_CorrespondingSourceObject: {fileID: 0}
  m_PrefabInstance: {fileID: 0}
  m_PrefabAsset: {fileID: 0}
  m_GameObject: {fileID: 676934703973662328}
  m_Enabled: 1
  m_EditorHideFlags: 0
  m_Script: {fileID: 11500000, guid: 02d61468f8b77ae4b92c344bc9a600fb, type: 3}
  m_Name: 
  m_EditorClassIdentifier: 
  m_allowOffhandGrab: 1
  m_snapPosition: 0
  m_snapOrientation: 0
  m_snapOffset: {fileID: 0}
  m_grabPoints: []
--- !u!114 &-3991006482897196337
MonoBehaviour:
  m_ObjectHideFlags: 0
  m_CorrespondingSourceObject: {fileID: 0}
  m_PrefabInstance: {fileID: 0}
  m_PrefabAsset: {fileID: 0}
  m_GameObject: {fileID: 676934703973662328}
  m_Enabled: 1
  m_EditorHideFlags: 0
  m_Script: {fileID: 11500000, guid: 94aff18cc83219c4bbc4e61586c481ad, type: 3}
  m_Name: 
  m_EditorClassIdentifier: 
--- !u!1001 &676934703973498238
PrefabInstance:
  m_ObjectHideFlags: 0
  serializedVersion: 2
  m_Modification:
    m_TransformParent: {fileID: 0}
    m_Modifications:
    - target: {fileID: 164614, guid: da315a54a49029940a86ba63ed06ef51, type: 3}
      propertyPath: m_Name
      value: Table Variant
      objectReference: {fileID: 0}
    - target: {fileID: 449564, guid: da315a54a49029940a86ba63ed06ef51, type: 3}
      propertyPath: m_LocalPosition.x
      value: -329.924
      objectReference: {fileID: 0}
    - target: {fileID: 449564, guid: da315a54a49029940a86ba63ed06ef51, type: 3}
      propertyPath: m_LocalPosition.y
      value: 76.46691
      objectReference: {fileID: 0}
    - target: {fileID: 449564, guid: da315a54a49029940a86ba63ed06ef51, type: 3}
      propertyPath: m_LocalPosition.z
      value: -47.75
      objectReference: {fileID: 0}
    - target: {fileID: 449564, guid: da315a54a49029940a86ba63ed06ef51, type: 3}
      propertyPath: m_LocalRotation.x
      value: 0
      objectReference: {fileID: 0}
    - target: {fileID: 449564, guid: da315a54a49029940a86ba63ed06ef51, type: 3}
      propertyPath: m_LocalRotation.y
      value: 0
      objectReference: {fileID: 0}
    - target: {fileID: 449564, guid: da315a54a49029940a86ba63ed06ef51, type: 3}
      propertyPath: m_LocalRotation.z
      value: 0
      objectReference: {fileID: 0}
    - target: {fileID: 449564, guid: da315a54a49029940a86ba63ed06ef51, type: 3}
      propertyPath: m_LocalRotation.w
      value: 1
      objectReference: {fileID: 0}
    - target: {fileID: 449564, guid: da315a54a49029940a86ba63ed06ef51, type: 3}
      propertyPath: m_RootOrder
      value: 0
      objectReference: {fileID: 0}
    - target: {fileID: 449564, guid: da315a54a49029940a86ba63ed06ef51, type: 3}
      propertyPath: m_LocalEulerAnglesHint.x
      value: 0
      objectReference: {fileID: 0}
    - target: {fileID: 449564, guid: da315a54a49029940a86ba63ed06ef51, type: 3}
      propertyPath: m_LocalEulerAnglesHint.y
      value: 0
      objectReference: {fileID: 0}
    - target: {fileID: 449564, guid: da315a54a49029940a86ba63ed06ef51, type: 3}
      propertyPath: m_LocalEulerAnglesHint.z
      value: 0
      objectReference: {fileID: 0}
    m_RemovedComponents: []
  m_SourcePrefab: {fileID: 100100000, guid: da315a54a49029940a86ba63ed06ef51, type: 3}
--- !u!1 &676934703973662328 stripped
GameObject:
  m_CorrespondingSourceObject: {fileID: 164614, guid: da315a54a49029940a86ba63ed06ef51,
    type: 3}
  m_PrefabInstance: {fileID: 676934703973498238}
  m_PrefabAsset: {fileID: 0}
